{
	"version": "2.0.0",
	"tasks": [
		{
			"label": "Execute current SQL block",
			"type": "shell",
			"command": "./.dbtool/dbtool execute ${lineNumber}",
			"presentation": {
				"reveal": "always",
				"panel": "dedicated",
				"echo": false,
				"showReuseMessage": false,
				"clear": true,
				"close": false
			},
			"group": {
				"kind": "build",
				"isDefault": true
			},
			"problemMatcher": []
		},
		{
			"label": "Check all SQL blocks",
			"type": "shell",
			"command": "./.dbtool/dbtool execute",
			"presentation": {
				"reveal": "always",
				"panel": "dedicated",
				"echo": false,
				"showReuseMessage": false,
				"clear": true,
				"close": false
			},
			"problemMatcher": []
		},
		{
			"label": "Show expectations based on current SQL block",
			"type": "shell",
			"command": "./.dbtool/dbtool expected ${lineNumber}",
			"presentation": {
				"reveal": "always",
				"panel": "dedicated",
				"echo": false,
				"showReuseMessage": false,
				"clear": true,
				"close": false
			},
			"problemMatcher": []
		}
	]
}
