﻿module_name;name;description;days;type
Coding in Python;Introduction to Python;Implement your first interactive application.;1;Hand-in assignment
Coding in Python;Flow control;Implement your first loopy application.;1;Hand-in assignment
Coding in Python;Functions & string manipulation;Define and use functions that take arguments and return a value. Convert other types to string, concatenate strings and take substrings. Give variables and functions concise but descriptive names.;1;Hand-in assignment
Coding in Python;Lists;Implement your first interactive application.;1;Hand-in assignment
Coding in Python;Debugging & exceptions;Use a debugger to find bugs in your code faster.;1;Demonstration
Coding in Python;Dictionaries;Use dictionaries to model relations.;1;Hand-in assignment
Coding in Python;Working with files;Read and write files.;1;Hand-in assignment
Coding in Python;Modules & decomposition;Use modules to split a program into logical parts.;1;Masterpiece
Static web;HTML;Write valid and semantic HTML.;1;Hand-in assignment
Static web;CSS basics;Apply styling to a site using plain CSS.;2;Hand-in assignment
Static web;Graphics design basics;Apply basic graphical design principles for fonts, colors, spacing and alignment.;1;Art exhibition
Static web;Web forms, fonts & icons;Construct HTML forms to collect user input. Use icons and fonts. Apply basic graphical design principles for fonts, colors, spacing and alignment.;1;Demonstration
Static web;Responsive layouts;Create web sites that look and work well on any screen size. Apply styling to a site using plain CSS. Apply basic graphical design principles for fonts, colors, spacing and alignment. Write valid and semantic HTML.;2;Hand-in assignment
Static web;Advanced CSS;Pseudo classes, transitions, animations, opacity, shadows, gradients and background images.;1;Hand-in assignment
SQL;Queries;Use SQL select queries to read, search, write, update and delete records.;1;Hand-in assignment
SQL;Join the fun;Write SQL queries involving joins.;1;Hand-in assignment
SQL;Aggregate functions;Use GROUP BY and aggregate functions to calculate statistics.;1;Hand-in assignment
SQL;Modifying data and subqueries;Use subqueries. Use SQL select queries to read, search, write, update and delete records.;1;Hand-in assignment
SQL;Data modeling;Describe real-world objects using Entity Relationship Diagrams.;1;Hand-in assignment
SQL;Schemas;Create normalized database tables based on an Entity Relationship Diagram. Use foreign keys to guarantee data consistency.;1;Hand-in assignment
SQL;Indexes;Use indexes to enhance query performance.;1;Hand-in assignment